ggplot2 demo
…
#select and keep only the mentioned variables in dataset "a": exclude the "x" column
a <- select(a,-x)

#add new variable "diff_x1_x2" into dataset "a"
a <- mutate(a, diff_x1_x2=x1-x2)

#drop any non-numeric characters before or after the first number
a$years <- parse_number(a$years)

a

## # A tibble: 26 x 13
##                        subject years supervisor stat_course data_anal
##                          <chr> <dbl>      <chr>       <chr>     <chr>
##  1 2017/09/18 9:12:14 AM GMT+3    25        Yes         Yes       Yes
##  2 2017/09/18 2:08:51 PM GMT+3    10         No         Yes       Yes
##  3 2017/09/18 3:24:49 PM GMT+3    26        Yes         Yes       Yes
##  4 2017/09/18 3:27:06 PM GMT+3    14        Yes         Yes       Yes
##  5 2017/09/18 3:27:47 PM GMT+3     8         No         Yes       Yes
##  6 2017/09/18 3:30:11 PM GMT+3     7        Yes         Yes        No
##  7 2017/09/18 3:34:36 PM GMT+3    14        Yes         Yes       Yes
##  8 2017/09/18 3:34:45 PM GMT+3     7         No         Yes       Yes
##  9 2017/09/18 3:52:46 PM GMT+3     8        Yes          No       Yes
## 10 2017/09/18 4:05:02 PM GMT+3    10        Yes         Yes       Yes
## # ... with 16 more rows, and 8 more variables: R_prof <chr>, x1 <int>,
## #   x2 <int>, x3 <int>, x4 <int>, x5 <int>, x6 <int>, diff_x1_x2 <int>
…
